%YAML 1.1
%TAG !u! tag:unity3d.com,2011:
--- !u!114 &11400000
MonoBehaviour:
  m_ObjectHideFlags: 0
  m_PrefabParentObject: {fileID: 0}
  m_PrefabInternal: {fileID: 0}
  m_GameObject: {fileID: 0}
  m_Enabled: 1
  m_EditorHideFlags: 0
  m_Script: {fileID: 11500000, guid: c3cbf69b31f7642f9b8d0828a0fcbd71, type: 3}
  m_Name: Charm_Item
  m_EditorClassIdentifier: 
  charmType: 3
  name: "\uC544\uC774\uD15C \uBD80\uC801"
  image: {fileID: 21300000, guid: 720ec83c94e614645b3579070ee5f3ec, type: 3}
  damage: 0
  count: 0
