%YAML 1.1
%TAG !u! tag:unity3d.com,2011:
--- !u!114 &11400000
MonoBehaviour:
  m_ObjectHideFlags: 0
  m_PrefabParentObject: {fileID: 0}
  m_PrefabInternal: {fileID: 0}
  m_GameObject: {fileID: 0}
  m_Enabled: 1
  m_EditorHideFlags: 0
  m_Script: {fileID: 11500000, guid: 2e2db0b7b90104a4dbff23b67b82b9e6, type: 3}
  m_Name: M_001_AR
  m_EditorClassIdentifier: 
  monsterPrefab: {fileID: 1749730728877170, guid: 42e28716f5a3947a8a2004421bfa0a90,
    type: 2}
  SD_DataAsset: {fileID: 11400000, guid: d9eb69d11f98449cc81e278dd178ee2f, type: 2}
  name: "\uBCBD\uC218\uADC0"
  description: "\uC0AC\uB78C\uC744 \uC870\uC885\uD558\uB294 \uB2A5\uB825"
  grade: 0
  hp: 1000
  VR_Mode_Pos: {x: 0, y: 11, z: 0}
  VR_Mode_Scale: {x: 1.5, y: 1.5, z: 1.5}
