{
    "id": 12,
    "width": 9,
    "height": 9,
    "tiles": [
        {
            "type": "RandomBlock",
            "blockerType": "None",
            "$type": "GameVanilla.Game.Common.BlockTile"
        },
        {
            "type": "RandomBlock",
            "blockerType": "None",
            "$type": "GameVanilla.Game.Common.BlockTile"
        },
        {
            "type": "RandomBlock",
            "blockerType": "None",
            "$type": "GameVanilla.Game.Common.BlockTile"
        },
        {
            "type": "RandomBlock",
            "blockerType": "None",
            "$type": "GameVanilla.Game.Common.BlockTile"
        },
        {
            "type": "RandomBlock",
            "blockerType": "None",
            "$type": "GameVanilla.Game.Common.BlockTile"
        },
        {
            "type": "RandomBlock",
            "blockerType": "None",
            "$type": "GameVanilla.Game.Common.BlockTile"
        },
        {
            "type": "RandomBlock",
            "blockerType": "None",
            "$type": "GameVanilla.Game.Common.BlockTile"
        },
        {
            "type": "RandomBlock",
            "blockerType": "None",
            "$type": "GameVanilla.Game.Common.BlockTile"
        },
        {
            "type": "RandomBlock",
            "blockerType": "None",
            "$type": "GameVanilla.Game.Common.BlockTile"
        },
        {
            "type": "RandomBlock",
            "blockerType": "None",
            "$type": "GameVanilla.Game.Common.BlockTile"
        },
        {
            "type": "RandomBlock",
            "blockerType": "None",
            "$type": "GameVanilla.Game.Common.BlockTile"
        },
        {
            "type": "RandomBlock",
            "blockerType": "None",
            "$type": "GameVanilla.Game.Common.BlockTile"
        },
        {
            "type": "RandomBlock",
            "blockerType": "None",
            "$type": "GameVanilla.Game.Common.BlockTile"
        },
        {
            "type": "RandomBlock",
            "blockerType": "None",
            "$type": "GameVanilla.Game.Common.BlockTile"
        },
        {
            "type": "RandomBlock",
            "blockerType": "None",
            "$type": "GameVanilla.Game.Common.BlockTile"
        },
        {
            "type": "RandomBlock",
            "blockerType": "None",
            "$type": "GameVanilla.Game.Common.BlockTile"
        },
        {
            "type": "RandomBlock",
            "blockerType": "None",
            "$type": "GameVanilla.Game.Common.BlockTile"
        },
        {
            "type": "RandomBlock",
            "blockerType": "None",
            "$type": "GameVanilla.Game.Common.BlockTile"
        },
        {
            "type": "Empty",
            "blockerType": "None",
            "$type": "GameVanilla.Game.Common.BlockTile"
        },
        {
            "type": "RandomBlock",
            "blockerType": "None",
            "$type": "GameVanilla.Game.Common.BlockTile"
        },
        {
            "type": "RandomBlock",
            "blockerType": "None",
            "$type": "GameVanilla.Game.Common.BlockTile"
        },
        {
            "type": "Empty",
            "blockerType": "None",
            "$type": "GameVanilla.Game.Common.BlockTile"
        },
        {
            "type": "Empty",
            "blockerType": "None",
            "$type": "GameVanilla.Game.Common.BlockTile"
        },
        {
            "type": "Empty",
            "blockerType": "None",
            "$type": "GameVanilla.Game.Common.BlockTile"
        },
        {
            "type": "RandomBlock",
            "blockerType": "None",
            "$type": "GameVanilla.Game.Common.BlockTile"
        },
        {
            "type": "RandomBlock",
            "blockerType": "None",
            "$type": "GameVanilla.Game.Common.BlockTile"
        },
        {
            "type": "Empty",
            "blockerType": "None",
            "$type": "GameVanilla.Game.Common.BlockTile"
        },
        {
            "type": "Empty",
            "blockerType": "None",
            "$type": "GameVanilla.Game.Common.BlockTile"
        },
        {
            "type": "RandomBlock",
            "blockerType": "None",
            "$type": "GameVanilla.Game.Common.BlockTile"
        },
        {
            "type": "RandomBlock",
            "blockerType": "None",
            "$type": "GameVanilla.Game.Common.BlockTile"
        },
        {
            "type": "RandomBlock",
            "blockerType": "None",
            "$type": "GameVanilla.Game.Common.BlockTile"
        },
        {
            "type": "RandomBlock",
            "blockerType": "None",
            "$type": "GameVanilla.Game.Common.BlockTile"
        },
        {
            "type": "RandomBlock",
            "blockerType": "None",
            "$type": "GameVanilla.Game.Common.BlockTile"
        },
        {
            "type": "RandomBlock",
            "blockerType": "None",
            "$type": "GameVanilla.Game.Common.BlockTile"
        },
        {
            "type": "RandomBlock",
            "blockerType": "None",
            "$type": "GameVanilla.Game.Common.BlockTile"
        },
        {
            "type": "Empty",
            "blockerType": "None",
            "$type": "GameVanilla.Game.Common.BlockTile"
        },
        {
            "type": "Empty",
            "blockerType": "None",
            "$type": "GameVanilla.Game.Common.BlockTile"
        },
        {
            "type": "Empty",
            "blockerType": "None",
            "$type": "GameVanilla.Game.Common.BlockTile"
        },
        {
            "type": "RandomBlock",
            "blockerType": "None",
            "$type": "GameVanilla.Game.Common.BlockTile"
        },
        {
            "type": "RandomBlock",
            "blockerType": "None",
            "$type": "GameVanilla.Game.Common.BlockTile"
        },
        {
            "type": "RandomBlock",
            "blockerType": "None",
            "$type": "GameVanilla.Game.Common.BlockTile"
        },
        {
            "type": "RandomBlock",
            "blockerType": "None",
            "$type": "GameVanilla.Game.Common.BlockTile"
        },
        {
            "type": "RandomBlock",
            "blockerType": "None",
            "$type": "GameVanilla.Game.Common.BlockTile"
        },
        {
            "type": "Empty",
            "blockerType": "None",
            "$type": "GameVanilla.Game.Common.BlockTile"
        },
        {
            "type": "Empty",
            "blockerType": "None",
            "$type": "GameVanilla.Game.Common.BlockTile"
        },
        {
            "type": "RandomBlock",
            "blockerType": "None",
            "$type": "GameVanilla.Game.Common.BlockTile"
        },
        {
            "type": "RandomBlock",
            "blockerType": "None",
            "$type": "GameVanilla.Game.Common.BlockTile"
        },
        {
            "type": "RandomBlock",
            "blockerType": "None",
            "$type": "GameVanilla.Game.Common.BlockTile"
        },
        {
            "type": "RandomBlock",
            "blockerType": "None",
            "$type": "GameVanilla.Game.Common.BlockTile"
        },
        {
            "type": "RandomBlock",
            "blockerType": "None",
            "$type": "GameVanilla.Game.Common.BlockTile"
        },
        {
            "type": "RandomBlock",
            "blockerType": "None",
            "$type": "GameVanilla.Game.Common.BlockTile"
        },
        {
            "type": "RandomBlock",
            "blockerType": "None",
            "$type": "GameVanilla.Game.Common.BlockTile"
        },
        {
            "type": "RandomBlock",
            "blockerType": "None",
            "$type": "GameVanilla.Game.Common.BlockTile"
        },
        {
            "type": "RandomBlock",
            "blockerType": "None",
            "$type": "GameVanilla.Game.Common.BlockTile"
        },
        {
            "type": "Stone",
            "blockerType": "None",
            "$type": "GameVanilla.Game.Common.BlockTile"
        },
        {
            "type": "Stone",
            "blockerType": "None",
            "$type": "GameVanilla.Game.Common.BlockTile"
        },
        {
            "type": "Stone",
            "blockerType": "None",
            "$type": "GameVanilla.Game.Common.BlockTile"
        },
        {
            "type": "Stone",
            "blockerType": "None",
            "$type": "GameVanilla.Game.Common.BlockTile"
        },
        {
            "type": "RandomBlock",
            "blockerType": "None",
            "$type": "GameVanilla.Game.Common.BlockTile"
        },
        {
            "type": "Stone",
            "blockerType": "None",
            "$type": "GameVanilla.Game.Common.BlockTile"
        },
        {
            "type": "Stone",
            "blockerType": "None",
            "$type": "GameVanilla.Game.Common.BlockTile"
        },
        {
            "type": "Stone",
            "blockerType": "None",
            "$type": "GameVanilla.Game.Common.BlockTile"
        },
        {
            "type": "Stone",
            "blockerType": "None",
            "$type": "GameVanilla.Game.Common.BlockTile"
        },
        {
            "type": "Ball",
            "blockerType": "None",
            "$type": "GameVanilla.Game.Common.BlockTile"
        },
        {
            "type": "Ball",
            "blockerType": "None",
            "$type": "GameVanilla.Game.Common.BlockTile"
        },
        {
            "type": "Ball",
            "blockerType": "None",
            "$type": "GameVanilla.Game.Common.BlockTile"
        },
        {
            "type": "RandomBlock",
            "blockerType": "None",
            "$type": "GameVanilla.Game.Common.BlockTile"
        },
        {
            "type": "Empty",
            "blockerType": "None",
            "$type": "GameVanilla.Game.Common.BlockTile"
        },
        {
            "type": "RandomBlock",
            "blockerType": "None",
            "$type": "GameVanilla.Game.Common.BlockTile"
        },
        {
            "type": "Ball",
            "blockerType": "None",
            "$type": "GameVanilla.Game.Common.BlockTile"
        },
        {
            "type": "Ball",
            "blockerType": "None",
            "$type": "GameVanilla.Game.Common.BlockTile"
        },
        {
            "type": "Ball",
            "blockerType": "None",
            "$type": "GameVanilla.Game.Common.BlockTile"
        },
        {
            "type": "RandomBlock",
            "blockerType": "None",
            "$type": "GameVanilla.Game.Common.BlockTile"
        },
        {
            "type": "RandomBlock",
            "blockerType": "None",
            "$type": "GameVanilla.Game.Common.BlockTile"
        },
        {
            "type": "RandomBlock",
            "blockerType": "None",
            "$type": "GameVanilla.Game.Common.BlockTile"
        },
        {
            "type": "RandomBlock",
            "blockerType": "None",
            "$type": "GameVanilla.Game.Common.BlockTile"
        },
        {
            "type": "Empty",
            "blockerType": "None",
            "$type": "GameVanilla.Game.Common.BlockTile"
        },
        {
            "type": "RandomBlock",
            "blockerType": "None",
            "$type": "GameVanilla.Game.Common.BlockTile"
        },
        {
            "type": "RandomBlock",
            "blockerType": "None",
            "$type": "GameVanilla.Game.Common.BlockTile"
        },
        {
            "type": "RandomBlock",
            "blockerType": "None",
            "$type": "GameVanilla.Game.Common.BlockTile"
        },
        {
            "type": "RandomBlock",
            "blockerType": "None",
            "$type": "GameVanilla.Game.Common.BlockTile"
        }
    ],
    "limitType": "Moves",
    "limit": 20,
    "goals": [
        {
            "blockType": "Stone",
            "amount": 8,
            "$type": "GameVanilla.Game.Common.CollectBlockGoal"
        },
        {
            "blockType": "Ball",
            "amount": 6,
            "$type": "GameVanilla.Game.Common.CollectBlockGoal"
        }
    ],
    "availableColors": [
        "ColorBlock1",
        "ColorBlock2",
        "ColorBlock4",
        "ColorBlock5",
        "ColorBlock6"
    ],
    "score1": 400,
    "score2": 800,
    "score3": 1200,
    "awardBoostersWithRemainingMoves": true,
    "awardedBoosterType": "HorizontalBomb",
    "collectableChance": 0,
    "availableBoosters": {
        "HorizontalBomb": true,
        "VerticalBomb": true,
        "Dynamite": true,
        "ColorBomb": true
    }
}
