{
    "id": 29,
    "width": 9,
    "height": 9,
    "tiles": [
        {
            "type": "Empty",
            "blockerType": "None",
            "$type": "GameVanilla.Game.Common.BlockTile"
        },
        {
            "type": "Empty",
            "blockerType": "None",
            "$type": "GameVanilla.Game.Common.BlockTile"
        },
        {
            "type": "Empty",
            "blockerType": "None",
            "$type": "GameVanilla.Game.Common.BlockTile"
        },
        {
            "type": "RandomBlock",
            "blockerType": "None",
            "$type": "GameVanilla.Game.Common.BlockTile"
        },
        {
            "type": "RandomBlock",
            "blockerType": "None",
            "$type": "GameVanilla.Game.Common.BlockTile"
        },
        {
            "type": "RandomBlock",
            "blockerType": "None",
            "$type": "GameVanilla.Game.Common.BlockTile"
        },
        {
            "type": "Empty",
            "blockerType": "None",
            "$type": "GameVanilla.Game.Common.BlockTile"
        },
        {
            "type": "Empty",
            "blockerType": "None",
            "$type": "GameVanilla.Game.Common.BlockTile"
        },
        {
            "type": "Empty",
            "blockerType": "None",
            "$type": "GameVanilla.Game.Common.BlockTile"
        },
        {
            "type": "Empty",
            "blockerType": "None",
            "$type": "GameVanilla.Game.Common.BlockTile"
        },
        {
            "type": "RandomBlock",
            "blockerType": "None",
            "$type": "GameVanilla.Game.Common.BlockTile"
        },
        {
            "type": "RandomBlock",
            "blockerType": "None",
            "$type": "GameVanilla.Game.Common.BlockTile"
        },
        {
            "type": "RandomBlock",
            "blockerType": "None",
            "$type": "GameVanilla.Game.Common.BlockTile"
        },
        {
            "type": "RandomBlock",
            "blockerType": "None",
            "$type": "GameVanilla.Game.Common.BlockTile"
        },
        {
            "type": "RandomBlock",
            "blockerType": "None",
            "$type": "GameVanilla.Game.Common.BlockTile"
        },
        {
            "type": "RandomBlock",
            "blockerType": "None",
            "$type": "GameVanilla.Game.Common.BlockTile"
        },
        {
            "type": "RandomBlock",
            "blockerType": "None",
            "$type": "GameVanilla.Game.Common.BlockTile"
        },
        {
            "type": "Empty",
            "blockerType": "None",
            "$type": "GameVanilla.Game.Common.BlockTile"
        },
        {
            "type": "RandomBlock",
            "blockerType": "None",
            "$type": "GameVanilla.Game.Common.BlockTile"
        },
        {
            "type": "RandomBlock",
            "blockerType": "None",
            "$type": "GameVanilla.Game.Common.BlockTile"
        },
        {
            "type": "RandomBlock",
            "blockerType": "None",
            "$type": "GameVanilla.Game.Common.BlockTile"
        },
        {
            "type": "RandomBlock",
            "blockerType": "None",
            "$type": "GameVanilla.Game.Common.BlockTile"
        },
        {
            "type": "RandomBlock",
            "blockerType": "None",
            "$type": "GameVanilla.Game.Common.BlockTile"
        },
        {
            "type": "RandomBlock",
            "blockerType": "None",
            "$type": "GameVanilla.Game.Common.BlockTile"
        },
        {
            "type": "RandomBlock",
            "blockerType": "None",
            "$type": "GameVanilla.Game.Common.BlockTile"
        },
        {
            "type": "RandomBlock",
            "blockerType": "None",
            "$type": "GameVanilla.Game.Common.BlockTile"
        },
        {
            "type": "RandomBlock",
            "blockerType": "None",
            "$type": "GameVanilla.Game.Common.BlockTile"
        },
        {
            "type": "RandomBlock",
            "blockerType": "None",
            "$type": "GameVanilla.Game.Common.BlockTile"
        },
        {
            "type": "RandomBlock",
            "blockerType": "None",
            "$type": "GameVanilla.Game.Common.BlockTile"
        },
        {
            "type": "RandomBlock",
            "blockerType": "None",
            "$type": "GameVanilla.Game.Common.BlockTile"
        },
        {
            "type": "Empty",
            "blockerType": "None",
            "$type": "GameVanilla.Game.Common.BlockTile"
        },
        {
            "type": "Empty",
            "blockerType": "None",
            "$type": "GameVanilla.Game.Common.BlockTile"
        },
        {
            "type": "Empty",
            "blockerType": "None",
            "$type": "GameVanilla.Game.Common.BlockTile"
        },
        {
            "type": "RandomBlock",
            "blockerType": "None",
            "$type": "GameVanilla.Game.Common.BlockTile"
        },
        {
            "type": "RandomBlock",
            "blockerType": "None",
            "$type": "GameVanilla.Game.Common.BlockTile"
        },
        {
            "type": "RandomBlock",
            "blockerType": "None",
            "$type": "GameVanilla.Game.Common.BlockTile"
        },
        {
            "type": "RandomBlock",
            "blockerType": "None",
            "$type": "GameVanilla.Game.Common.BlockTile"
        },
        {
            "type": "RandomBlock",
            "blockerType": "None",
            "$type": "GameVanilla.Game.Common.BlockTile"
        },
        {
            "type": "RandomBlock",
            "blockerType": "None",
            "$type": "GameVanilla.Game.Common.BlockTile"
        },
        {
            "type": "Empty",
            "blockerType": "None",
            "$type": "GameVanilla.Game.Common.BlockTile"
        },
        {
            "type": "Empty",
            "blockerType": "None",
            "$type": "GameVanilla.Game.Common.BlockTile"
        },
        {
            "type": "Empty",
            "blockerType": "None",
            "$type": "GameVanilla.Game.Common.BlockTile"
        },
        {
            "type": "RandomBlock",
            "blockerType": "None",
            "$type": "GameVanilla.Game.Common.BlockTile"
        },
        {
            "type": "RandomBlock",
            "blockerType": "None",
            "$type": "GameVanilla.Game.Common.BlockTile"
        },
        {
            "type": "RandomBlock",
            "blockerType": "None",
            "$type": "GameVanilla.Game.Common.BlockTile"
        },
        {
            "type": "RandomBlock",
            "blockerType": "None",
            "$type": "GameVanilla.Game.Common.BlockTile"
        },
        {
            "type": "RandomBlock",
            "blockerType": "None",
            "$type": "GameVanilla.Game.Common.BlockTile"
        },
        {
            "type": "RandomBlock",
            "blockerType": "None",
            "$type": "GameVanilla.Game.Common.BlockTile"
        },
        {
            "type": "Empty",
            "blockerType": "None",
            "$type": "GameVanilla.Game.Common.BlockTile"
        },
        {
            "type": "Empty",
            "blockerType": "None",
            "$type": "GameVanilla.Game.Common.BlockTile"
        },
        {
            "type": "Empty",
            "blockerType": "None",
            "$type": "GameVanilla.Game.Common.BlockTile"
        },
        {
            "type": "RandomBlock",
            "blockerType": "None",
            "$type": "GameVanilla.Game.Common.BlockTile"
        },
        {
            "type": "RandomBlock",
            "blockerType": "None",
            "$type": "GameVanilla.Game.Common.BlockTile"
        },
        {
            "type": "RandomBlock",
            "blockerType": "None",
            "$type": "GameVanilla.Game.Common.BlockTile"
        },
        {
            "type": "RandomBlock",
            "blockerType": "None",
            "$type": "GameVanilla.Game.Common.BlockTile"
        },
        {
            "type": "RandomBlock",
            "blockerType": "None",
            "$type": "GameVanilla.Game.Common.BlockTile"
        },
        {
            "type": "RandomBlock",
            "blockerType": "None",
            "$type": "GameVanilla.Game.Common.BlockTile"
        },
        {
            "type": "RandomBlock",
            "blockerType": "None",
            "$type": "GameVanilla.Game.Common.BlockTile"
        },
        {
            "type": "RandomBlock",
            "blockerType": "None",
            "$type": "GameVanilla.Game.Common.BlockTile"
        },
        {
            "type": "RandomBlock",
            "blockerType": "None",
            "$type": "GameVanilla.Game.Common.BlockTile"
        },
        {
            "type": "RandomBlock",
            "blockerType": "None",
            "$type": "GameVanilla.Game.Common.BlockTile"
        },
        {
            "type": "RandomBlock",
            "blockerType": "None",
            "$type": "GameVanilla.Game.Common.BlockTile"
        },
        {
            "type": "RandomBlock",
            "blockerType": "None",
            "$type": "GameVanilla.Game.Common.BlockTile"
        },
        {
            "type": "Empty",
            "blockerType": "None",
            "$type": "GameVanilla.Game.Common.BlockTile"
        },
        {
            "type": "RandomBlock",
            "blockerType": "None",
            "$type": "GameVanilla.Game.Common.BlockTile"
        },
        {
            "type": "RandomBlock",
            "blockerType": "None",
            "$type": "GameVanilla.Game.Common.BlockTile"
        },
        {
            "type": "RandomBlock",
            "blockerType": "None",
            "$type": "GameVanilla.Game.Common.BlockTile"
        },
        {
            "type": "RandomBlock",
            "blockerType": "None",
            "$type": "GameVanilla.Game.Common.BlockTile"
        },
        {
            "type": "RandomBlock",
            "blockerType": "None",
            "$type": "GameVanilla.Game.Common.BlockTile"
        },
        {
            "type": "RandomBlock",
            "blockerType": "None",
            "$type": "GameVanilla.Game.Common.BlockTile"
        },
        {
            "type": "RandomBlock",
            "blockerType": "None",
            "$type": "GameVanilla.Game.Common.BlockTile"
        },
        {
            "type": "Empty",
            "blockerType": "None",
            "$type": "GameVanilla.Game.Common.BlockTile"
        },
        {
            "type": "Empty",
            "blockerType": "None",
            "$type": "GameVanilla.Game.Common.BlockTile"
        },
        {
            "type": "Empty",
            "blockerType": "None",
            "$type": "GameVanilla.Game.Common.BlockTile"
        },
        {
            "type": "Empty",
            "blockerType": "None",
            "$type": "GameVanilla.Game.Common.BlockTile"
        },
        {
            "type": "RandomBlock",
            "blockerType": "None",
            "$type": "GameVanilla.Game.Common.BlockTile"
        },
        {
            "type": "RandomBlock",
            "blockerType": "None",
            "$type": "GameVanilla.Game.Common.BlockTile"
        },
        {
            "type": "RandomBlock",
            "blockerType": "None",
            "$type": "GameVanilla.Game.Common.BlockTile"
        },
        {
            "type": "Empty",
            "blockerType": "None",
            "$type": "GameVanilla.Game.Common.BlockTile"
        },
        {
            "type": "Empty",
            "blockerType": "None",
            "$type": "GameVanilla.Game.Common.BlockTile"
        },
        {
            "type": "Empty",
            "blockerType": "None",
            "$type": "GameVanilla.Game.Common.BlockTile"
        }
    ],
    "limitType": "Time",
    "limit": 60,
    "goals": [
        {
            "blockType": "Block1",
            "amount": 8,
            "$type": "GameVanilla.Game.Common.CollectBlockGoal"
        },
        {
            "blockType": "Block2",
            "amount": 10,
            "$type": "GameVanilla.Game.Common.CollectBlockGoal"
        },
        {
            "blockType": "Block5",
            "amount": 12,
            "$type": "GameVanilla.Game.Common.CollectBlockGoal"
        }
    ],
    "availableColors": [
        "ColorBlock1",
        "ColorBlock2",
        "ColorBlock3",
        "ColorBlock4",
        "ColorBlock5",
        "ColorBlock6"
    ],
    "score1": 1000,
    "score2": 2000,
    "score3": 3000,
    "awardBoostersWithRemainingMoves": false,
    "awardedBoosterType": "HorizontalBomb",
    "collectableChance": 0,
    "availableBoosters": {
        "HorizontalBomb": true,
        "VerticalBomb": true,
        "Dynamite": true,
        "ColorBomb": true
    }
}
