{
    "id": 6,
    "width": 9,
    "height": 9,
    "tiles": [
        {
            "type": "Empty",
            "blockerType": "None",
            "$type": "GameVanilla.Game.Common.BlockTile"
        },
        {
            "type": "Empty",
            "blockerType": "None",
            "$type": "GameVanilla.Game.Common.BlockTile"
        },
        {
            "type": "Empty",
            "blockerType": "None",
            "$type": "GameVanilla.Game.Common.BlockTile"
        },
        {
            "type": "RandomBlock",
            "blockerType": "None",
            "$type": "GameVanilla.Game.Common.BlockTile"
        },
        {
            "type": "RandomBlock",
            "blockerType": "None",
            "$type": "GameVanilla.Game.Common.BlockTile"
        },
        {
            "type": "RandomBlock",
            "blockerType": "None",
            "$type": "GameVanilla.Game.Common.BlockTile"
        },
        {
            "type": "Empty",
            "blockerType": "None",
            "$type": "GameVanilla.Game.Common.BlockTile"
        },
        {
            "type": "Empty",
            "blockerType": "None",
            "$type": "GameVanilla.Game.Common.BlockTile"
        },
        {
            "type": "Empty",
            "blockerType": "None",
            "$type": "GameVanilla.Game.Common.BlockTile"
        },
        {
            "type": "Empty",
            "blockerType": "None",
            "$type": "GameVanilla.Game.Common.BlockTile"
        },
        {
            "type": "Empty",
            "blockerType": "None",
            "$type": "GameVanilla.Game.Common.BlockTile"
        },
        {
            "type": "RandomBlock",
            "blockerType": "None",
            "$type": "GameVanilla.Game.Common.BlockTile"
        },
        {
            "type": "RandomBlock",
            "blockerType": "None",
            "$type": "GameVanilla.Game.Common.BlockTile"
        },
        {
            "type": "RandomBlock",
            "blockerType": "None",
            "$type": "GameVanilla.Game.Common.BlockTile"
        },
        {
            "type": "RandomBlock",
            "blockerType": "None",
            "$type": "GameVanilla.Game.Common.BlockTile"
        },
        {
            "type": "RandomBlock",
            "blockerType": "None",
            "$type": "GameVanilla.Game.Common.BlockTile"
        },
        {
            "type": "Empty",
            "blockerType": "None",
            "$type": "GameVanilla.Game.Common.BlockTile"
        },
        {
            "type": "Empty",
            "blockerType": "None",
            "$type": "GameVanilla.Game.Common.BlockTile"
        },
        {
            "type": "Empty",
            "blockerType": "None",
            "$type": "GameVanilla.Game.Common.BlockTile"
        },
        {
            "type": "RandomBlock",
            "blockerType": "None",
            "$type": "GameVanilla.Game.Common.BlockTile"
        },
        {
            "type": "RandomBlock",
            "blockerType": "None",
            "$type": "GameVanilla.Game.Common.BlockTile"
        },
        {
            "type": "Empty",
            "blockerType": "None",
            "$type": "GameVanilla.Game.Common.BlockTile"
        },
        {
            "type": "VerticalBomb",
            "blockerType": "None",
            "$type": "GameVanilla.Game.Common.BoosterTile"
        },
        {
            "type": "Empty",
            "blockerType": "None",
            "$type": "GameVanilla.Game.Common.BlockTile"
        },
        {
            "type": "RandomBlock",
            "blockerType": "None",
            "$type": "GameVanilla.Game.Common.BlockTile"
        },
        {
            "type": "RandomBlock",
            "blockerType": "None",
            "$type": "GameVanilla.Game.Common.BlockTile"
        },
        {
            "type": "Empty",
            "blockerType": "None",
            "$type": "GameVanilla.Game.Common.BlockTile"
        },
        {
            "type": "RandomBlock",
            "blockerType": "None",
            "$type": "GameVanilla.Game.Common.BlockTile"
        },
        {
            "type": "RandomBlock",
            "blockerType": "None",
            "$type": "GameVanilla.Game.Common.BlockTile"
        },
        {
            "type": "RandomBlock",
            "blockerType": "Ice",
            "$type": "GameVanilla.Game.Common.BlockTile"
        },
        {
            "type": "RandomBlock",
            "blockerType": "Ice",
            "$type": "GameVanilla.Game.Common.BlockTile"
        },
        {
            "type": "RandomBlock",
            "blockerType": "Ice",
            "$type": "GameVanilla.Game.Common.BlockTile"
        },
        {
            "type": "RandomBlock",
            "blockerType": "Ice",
            "$type": "GameVanilla.Game.Common.BlockTile"
        },
        {
            "type": "RandomBlock",
            "blockerType": "Ice",
            "$type": "GameVanilla.Game.Common.BlockTile"
        },
        {
            "type": "RandomBlock",
            "blockerType": "None",
            "$type": "GameVanilla.Game.Common.BlockTile"
        },
        {
            "type": "RandomBlock",
            "blockerType": "None",
            "$type": "GameVanilla.Game.Common.BlockTile"
        },
        {
            "type": "ColorBomb",
            "blockerType": "None",
            "$type": "GameVanilla.Game.Common.BoosterTile"
        },
        {
            "type": "RandomBlock",
            "blockerType": "Ice",
            "$type": "GameVanilla.Game.Common.BlockTile"
        },
        {
            "type": "RandomBlock",
            "blockerType": "Ice",
            "$type": "GameVanilla.Game.Common.BlockTile"
        },
        {
            "type": "Stone",
            "blockerType": "Ice",
            "$type": "GameVanilla.Game.Common.BlockTile"
        },
        {
            "type": "RandomBlock",
            "blockerType": "Ice",
            "$type": "GameVanilla.Game.Common.BlockTile"
        },
        {
            "type": "Stone",
            "blockerType": "Ice",
            "$type": "GameVanilla.Game.Common.BlockTile"
        },
        {
            "type": "RandomBlock",
            "blockerType": "Ice",
            "$type": "GameVanilla.Game.Common.BlockTile"
        },
        {
            "type": "RandomBlock",
            "blockerType": "Ice",
            "$type": "GameVanilla.Game.Common.BlockTile"
        },
        {
            "type": "ColorBomb",
            "blockerType": "None",
            "$type": "GameVanilla.Game.Common.BoosterTile"
        },
        {
            "type": "RandomBlock",
            "blockerType": "None",
            "$type": "GameVanilla.Game.Common.BlockTile"
        },
        {
            "type": "RandomBlock",
            "blockerType": "Ice",
            "$type": "GameVanilla.Game.Common.BlockTile"
        },
        {
            "type": "RandomBlock",
            "blockerType": "Ice",
            "$type": "GameVanilla.Game.Common.BlockTile"
        },
        {
            "type": "Stone",
            "blockerType": "Ice",
            "$type": "GameVanilla.Game.Common.BlockTile"
        },
        {
            "type": "RandomBlock",
            "blockerType": "Ice",
            "$type": "GameVanilla.Game.Common.BlockTile"
        },
        {
            "type": "Stone",
            "blockerType": "Ice",
            "$type": "GameVanilla.Game.Common.BlockTile"
        },
        {
            "type": "RandomBlock",
            "blockerType": "Ice",
            "$type": "GameVanilla.Game.Common.BlockTile"
        },
        {
            "type": "RandomBlock",
            "blockerType": "Ice",
            "$type": "GameVanilla.Game.Common.BlockTile"
        },
        {
            "type": "RandomBlock",
            "blockerType": "None",
            "$type": "GameVanilla.Game.Common.BlockTile"
        },
        {
            "type": "Empty",
            "blockerType": "None",
            "$type": "GameVanilla.Game.Common.BlockTile"
        },
        {
            "type": "RandomBlock",
            "blockerType": "None",
            "$type": "GameVanilla.Game.Common.BlockTile"
        },
        {
            "type": "RandomBlock",
            "blockerType": "Ice",
            "$type": "GameVanilla.Game.Common.BlockTile"
        },
        {
            "type": "Stone",
            "blockerType": "Ice",
            "$type": "GameVanilla.Game.Common.BlockTile"
        },
        {
            "type": "RandomBlock",
            "blockerType": "Ice",
            "$type": "GameVanilla.Game.Common.BlockTile"
        },
        {
            "type": "Stone",
            "blockerType": "Ice",
            "$type": "GameVanilla.Game.Common.BlockTile"
        },
        {
            "type": "RandomBlock",
            "blockerType": "Ice",
            "$type": "GameVanilla.Game.Common.BlockTile"
        },
        {
            "type": "RandomBlock",
            "blockerType": "None",
            "$type": "GameVanilla.Game.Common.BlockTile"
        },
        {
            "type": "Empty",
            "blockerType": "None",
            "$type": "GameVanilla.Game.Common.BlockTile"
        },
        {
            "type": "Empty",
            "blockerType": "None",
            "$type": "GameVanilla.Game.Common.BlockTile"
        },
        {
            "type": "Empty",
            "blockerType": "None",
            "$type": "GameVanilla.Game.Common.BlockTile"
        },
        {
            "type": "Stone",
            "blockerType": "None",
            "$type": "GameVanilla.Game.Common.BlockTile"
        },
        {
            "type": "Stone",
            "blockerType": "None",
            "$type": "GameVanilla.Game.Common.BlockTile"
        },
        {
            "type": "Stone",
            "blockerType": "None",
            "$type": "GameVanilla.Game.Common.BlockTile"
        },
        {
            "type": "Stone",
            "blockerType": "None",
            "$type": "GameVanilla.Game.Common.BlockTile"
        },
        {
            "type": "Stone",
            "blockerType": "None",
            "$type": "GameVanilla.Game.Common.BlockTile"
        },
        {
            "type": "Empty",
            "blockerType": "None",
            "$type": "GameVanilla.Game.Common.BlockTile"
        },
        {
            "type": "Empty",
            "blockerType": "None",
            "$type": "GameVanilla.Game.Common.BlockTile"
        },
        {
            "type": "Empty",
            "blockerType": "None",
            "$type": "GameVanilla.Game.Common.BlockTile"
        },
        {
            "type": "Empty",
            "blockerType": "None",
            "$type": "GameVanilla.Game.Common.BlockTile"
        },
        {
            "type": "Empty",
            "blockerType": "None",
            "$type": "GameVanilla.Game.Common.BlockTile"
        },
        {
            "type": "Stone",
            "blockerType": "None",
            "$type": "GameVanilla.Game.Common.BlockTile"
        },
        {
            "type": "Stone",
            "blockerType": "None",
            "$type": "GameVanilla.Game.Common.BlockTile"
        },
        {
            "type": "Stone",
            "blockerType": "None",
            "$type": "GameVanilla.Game.Common.BlockTile"
        },
        {
            "type": "Empty",
            "blockerType": "None",
            "$type": "GameVanilla.Game.Common.BlockTile"
        },
        {
            "type": "Empty",
            "blockerType": "None",
            "$type": "GameVanilla.Game.Common.BlockTile"
        },
        {
            "type": "Empty",
            "blockerType": "None",
            "$type": "GameVanilla.Game.Common.BlockTile"
        }
    ],
    "limitType": "Moves",
    "limit": 15,
    "goals": [
        {
            "blockerType": "Ice",
            "amount": 24,
            "$type": "GameVanilla.Game.Common.CollectBlockerGoal"
        },
        {
            "blockType": "Stone",
            "amount": 14,
            "$type": "GameVanilla.Game.Common.CollectBlockGoal"
        }
    ],
    "availableColors": [
        "ColorBlock1",
        "ColorBlock2",
        "ColorBlock4",
        "ColorBlock6"
    ],
    "score1": 300,
    "score2": 600,
    "score3": 900,
    "awardBoostersWithRemainingMoves": true,
    "awardedBoosterType": "VerticalBomb",
    "collectableChance": 0,
    "availableBoosters": {
        "HorizontalBomb": true,
        "VerticalBomb": true,
        "Dynamite": true,
        "ColorBomb": true
    }
}
