%YAML 1.1
%TAG !u! tag:unity3d.com,2011:
--- !u!221 &22100000
AnimatorOverrideController:
  m_ObjectHideFlags: 0
  m_PrefabParentObject: {fileID: 0}
  m_PrefabInternal: {fileID: 0}
  m_Name: Confetti3
  m_Controller: {fileID: 9100000, guid: b94772c752c2e47a08b9b66d318b5a63, type: 2}
  m_Clips:
  - m_OriginalClip: {fileID: 7400000, guid: 482a29bf4d5b14d8f9a6272390f08f9e, type: 2}
    m_OverrideClip: {fileID: 7400000, guid: 5cc37285cd70c41ef9a37d926f6d10fc, type: 2}
  - m_OriginalClip: {fileID: 7400000, guid: 3176a0c947e7d4c4f981f4f37277313f, type: 2}
    m_OverrideClip: {fileID: 7400000, guid: 3176a0c947e7d4c4f981f4f37277313f, type: 2}
